<svg width="3.875em" height="1.625em" viewBox="0 0 160 32" fill="none"
  xmlns="http://www.w3.org/2000/svg">
  <path
    d="M143.643 11.5959H145.803L147.077 13.4707C147.667 12.7161 148.411 12.1501 149.308 11.7728C150.229 11.3954 151.126 11.2068 151.999 11.2068C153.156 11.2068 154.206 11.478 155.15 12.0204C156.095 12.5392 156.838 13.2821 157.381 14.249C157.948 15.1923 158.231 16.3007 158.231 17.5741V28.6108H154.903V18.4939C154.903 17.2204 154.584 16.1945 153.947 15.4163C153.333 14.6145 152.377 14.2136 151.078 14.2136C149.757 14.2136 148.741 14.6145 148.033 15.4163C147.325 16.1945 146.971 17.244 146.971 18.5646V28.6108H143.643V11.5959Z"
    fill="currentcolor" />
  <path
    d="M132.996 29C131.273 29 129.727 28.6108 128.358 27.8326C127.012 27.0308 125.962 25.9578 125.206 24.6136C124.451 23.2694 124.073 21.7954 124.073 20.1918C124.073 18.541 124.463 17.0317 125.242 15.6639C126.044 14.2961 127.118 13.2113 128.464 12.4095C129.809 11.6077 131.273 11.2068 132.855 11.2068C134.389 11.2068 135.77 11.5841 136.997 12.3388C138.225 13.0934 139.181 14.1075 139.866 15.3809C140.55 16.6308 140.892 17.975 140.892 19.4136C140.892 19.9324 140.845 20.4748 140.751 21.0408H127.472C127.661 22.5501 128.251 23.7646 129.243 24.6843C130.234 25.5805 131.509 26.0285 133.067 26.0285C133.846 26.0285 134.625 25.887 135.404 25.604C136.207 25.2975 137.104 24.7669 138.095 24.0122L140.043 26.2408C137.894 28.0802 135.546 29 132.996 29ZM137.387 18.3524C137.245 17.0553 136.726 16.0412 135.829 15.3102C134.932 14.5555 133.917 14.1782 132.784 14.1782C131.627 14.1782 130.577 14.5673 129.632 15.3456C128.688 16.1238 128.027 17.1261 127.649 18.3524H137.387Z"
    fill="currentcolor" />
  <path d="M117.97 3H121.298V28.6108H117.97V3Z" fill="currentcolor" />
  <path
    d="M105.685 29C103.915 29 102.498 28.5165 101.436 27.5496C100.397 26.5827 99.8779 25.3682 99.8779 23.9061C99.8779 22.5619 100.35 21.4417 101.294 20.5456C102.239 19.6494 103.49 19.0952 105.048 18.883L110.961 18.034V16.902C110.961 16.1238 110.63 15.4753 109.969 14.9564C109.332 14.4376 108.447 14.1782 107.314 14.1782C106.511 14.1782 105.744 14.3551 105.012 14.7088C104.28 15.039 103.454 15.6521 102.534 16.5483L100.586 14.3197C101.696 13.1877 102.805 12.3859 103.915 11.9143C105.024 11.4426 106.192 11.2068 107.42 11.2068C108.86 11.2068 110.099 11.4898 111.138 12.0558C112.177 12.6218 112.956 13.3764 113.475 14.3197C114.018 15.263 114.289 16.3007 114.289 17.4326V28.6108H112.165L110.925 26.8068C109.604 28.2689 107.857 29 105.685 29ZM103.277 23.7646C103.277 24.4485 103.513 25.0263 103.985 25.4979C104.481 25.9696 105.26 26.2054 106.322 26.2054C107.621 26.2054 108.718 25.8163 109.615 25.0381C110.512 24.2362 110.961 22.9982 110.961 21.3238V20.4748C110.56 20.5691 110.005 20.6753 109.297 20.7932L105.756 21.3238C105.024 21.4417 104.422 21.7129 103.95 22.1374C103.501 22.5619 103.277 23.1043 103.277 23.7646Z"
    fill="currentcolor" />
  <path
    d="M82.6953 11.5959H84.8552L86.13 13.4707C86.7201 12.7161 87.4637 12.1501 88.3607 11.7728C89.2814 11.3954 90.1784 11.2068 91.0518 11.2068C92.2085 11.2068 93.2589 11.478 94.2032 12.0204C95.1474 12.5392 95.891 13.2821 96.4339 14.249C97.0005 15.1923 97.2837 16.3007 97.2837 17.5741V28.6108H93.9553V18.4939C93.9553 17.2204 93.6366 16.1945 92.9993 15.4163C92.3855 14.6145 91.4295 14.2136 90.1312 14.2136C88.8092 14.2136 87.7942 14.6145 87.086 15.4163C86.3778 16.1945 86.0237 17.244 86.0237 18.5646V28.6108H82.6953V11.5959Z"
    fill="currentcolor" />
  <path
    d="M70.4135 29C68.6431 29 67.2267 28.5165 66.1644 27.5496C65.1258 26.5827 64.6064 25.3682 64.6064 23.9061C64.6064 22.5619 65.0786 21.4417 66.0228 20.5456C66.967 19.6494 68.2181 19.0952 69.7761 18.883L75.6894 18.034V16.902C75.6894 16.1238 75.3589 15.4753 74.698 14.9564C74.0606 14.4376 73.1754 14.1782 72.0423 14.1782C71.2397 14.1782 70.4725 14.3551 69.7407 14.7088C69.0089 15.039 68.1827 15.6521 67.2621 16.5483L65.3146 14.3197C66.4241 13.1877 67.5336 12.3859 68.6431 11.9143C69.7525 11.4426 70.921 11.2068 72.1485 11.2068C73.5885 11.2068 74.8278 11.4898 75.8665 12.0558C76.9051 12.6218 77.6841 13.3764 78.2034 14.3197C78.7464 15.263 79.0178 16.3007 79.0178 17.4326V28.6108H76.8933L75.654 26.8068C74.3321 28.2689 72.5852 29 70.4135 29ZM68.0057 23.7646C68.0057 24.4485 68.2418 25.0263 68.7139 25.4979C69.2096 25.9696 69.9886 26.2054 71.0509 26.2054C72.3492 26.2054 73.4469 25.8163 74.3439 25.0381C75.2409 24.2362 75.6894 22.9982 75.6894 21.3238V20.4748C75.2881 20.5691 74.7334 20.6753 74.0252 20.7932L70.4843 21.3238C69.7525 21.4417 69.1506 21.7129 68.6785 22.1374C68.23 22.5619 68.0057 23.1043 68.0057 23.7646Z"
    fill="currentcolor" />
  <path
    d="M49.8926 3H53.221V19.3075L59.807 11.5959H63.7728L56.6911 19.9796L64.2686 28.6108H60.232L53.221 20.8993V28.6108H49.8926V3Z"
    fill="currentcolor" />
  <path d="M37.2861 17.0082H46.8933V19.9089H37.2861V17.0082Z" fill="currentcolor" />
  <path
    d="M21.0508 3.53064H35.9579V6.8558H24.5208V14.7796H34.5415V18.1048H24.5208V28.6109H21.0508V3.53064Z"
    fill="currentcolor" />
  <path
    d="M9.2461 29.0001C7.00354 29.0001 5.19769 28.4223 3.82855 27.2667C2.48301 26.0876 1.55058 24.6137 1.03125 22.845L4.041 21.1116C4.53672 22.5502 5.17408 23.6586 5.95308 24.4368C6.73207 25.215 7.85335 25.6042 9.31692 25.6042C10.7805 25.6042 11.9372 25.2268 12.787 24.4722C13.6368 23.7175 14.0617 22.786 14.0617 21.6776C14.0617 19.9325 12.8342 18.7298 10.3792 18.0695L7.86515 17.3974C6.02389 16.9021 4.53672 16.0767 3.40364 14.9212C2.27056 13.742 1.70402 12.2799 1.70402 10.5348C1.70402 9.21416 2.0345 7.98785 2.69547 6.85588C3.35643 5.72391 4.28886 4.82777 5.49276 4.16745C6.72027 3.48355 8.12482 3.1416 9.70641 3.1416C11.5241 3.1416 13.0584 3.58967 14.3096 4.48582C15.5843 5.35838 16.4931 6.51393 17.036 7.95248L14.0617 9.68581C13.2119 7.58695 11.7719 6.53751 9.74182 6.53751C8.4435 6.53751 7.36943 6.90305 6.51962 7.63411C5.66981 8.36518 5.2449 9.26132 5.2449 10.3225C5.2449 11.1951 5.53997 11.9498 6.13012 12.5865C6.74387 13.2232 7.52287 13.6595 8.4671 13.8953L11.0874 14.5674C13.1411 15.1098 14.7345 15.9824 15.8676 17.1851C17.0242 18.3878 17.6026 19.8264 17.6026 21.5008C17.6026 22.7978 17.2721 24.0241 16.6111 25.1797C15.9502 26.3116 14.9823 27.2314 13.7076 27.9388C12.4565 28.6463 10.9693 29.0001 9.2461 29.0001Z"
    fill="currentcolor" />
</svg>