<svg width="3.875em" height="1.625em" viewBox="0 0 110 32" fill="none"
  xmlns="http://www.w3.org/2000/svg">
  <path
    d="M10.9233 2C17.022 2 21.3465 6.41305 21.3465 12.837V15.5H16.0658V12.837C16.0658 9.4022 13.9726 7.26087 10.9233 7.26087C7.87387 7.26087 5.78069 9.4022 5.78069 12.837H0.5C0.5 6.41305 4.8138 2 10.9233 2ZM0.5 29H21.3359V23.8153H6.93882L14.3445 15.5109H7.90572L0.5 23.8044V29ZM31.4818 18.4674H34.8712C35.1708 19.9815 36.6509 20.9674 38.7101 20.9674C40.6619 20.9674 41.8201 20.287 41.8201 19.1674C41.8201 16.0522 32.2319 18.3119 32.2319 11.6413C32.2319 8.96415 34.4844 6.92391 38.0885 6.92391C41.649 6.92391 44.1586 8.98914 44.8238 12.3H41.4131C41.1337 10.8956 39.9117 9.99567 38.0885 9.99567C36.5011 9.99567 35.5384 10.6978 35.5384 11.6413C35.5384 14.8228 45.1266 12.475 45.1266 19.1674C45.1266 22.1522 42.6382 24.0391 38.7133 24.0391C34.9137 24.0359 32.1682 21.8859 31.4818 18.4674ZM46.8393 11.4848H49.842V14.0522H50.0779C50.8503 12.0555 52.3517 11.2652 54.1537 11.2652C57.1138 11.2652 59.1942 13.7229 59.1942 17.6511C59.1942 21.5565 57.1138 24.0359 54.1537 24.0359C52.3474 24.0359 50.8503 23.2239 50.0779 21.2489H49.842V28.7761H46.8393V11.4848ZM52.8447 21.3587C54.668 21.3587 55.8473 19.9109 55.8473 17.6511C55.8473 15.3913 54.668 13.9424 52.8447 13.9424C51.0214 13.9424 49.842 15.3685 49.842 17.6511C49.842 19.9109 51.0214 21.3587 52.8447 21.3587ZM60.5234 17.6511C60.5234 13.9424 63.0979 11.2652 66.9155 11.2652C70.7117 11.2652 73.2909 13.9424 73.2909 17.6511C73.2909 21.337 70.7158 24.0359 66.9155 24.0359C63.1032 24.0359 60.5234 21.337 60.5234 17.6511ZM66.9155 21.3804C68.7602 21.3804 70.1113 19.9989 70.1113 17.6511C70.1113 15.2805 68.7602 13.9207 66.9155 13.9207C65.0497 13.9207 63.6982 15.2805 63.6982 17.6511C63.6982 19.9989 65.0497 21.3804 66.9155 21.3804ZM75.0033 11.4848H78.0063V14.0522H78.242C79.0144 12.0957 80.4734 11.4848 82.0384 11.4848H82.9181C84.0334 11.4848 84.3343 11.1772 84.3343 10.0359V8.23696H87.2932V11.4848H90.1896V14.0739H87.2912V20.9859H90.1875V23.812H87.571C85.2106 23.812 84.3323 22.8902 84.3323 20.4989V14.0739H80.8354C79.0544 14.0739 78.0036 15.3468 78.0036 17.4968V23.8163H75.0033V11.4848ZM106.296 12.3185C106.296 10.9358 105.201 9.8391 103.335 9.8391C101.423 9.8391 100.097 11.1772 100.097 12.9772H96.9645C96.9645 9.48806 99.5145 6.92065 103.339 6.92065C107.072 6.92065 109.431 9.13695 109.431 12.3185C109.431 18.4402 100.207 18.112 100.207 20.6783V20.8957H109.429V23.8142H97.0066V21.6663C97.0066 14.513 106.296 16.2935 106.296 12.3185Z"
    fill="currentcolor" />
</svg>