<svg width="3.875em" height="1.625em" viewBox="0 0 95 32" fill="none"
  xmlns="http://www.w3.org/2000/svg">
  <path
    d="M11.9683 2C18.0935 2 22.4367 6.41305 22.4367 12.837V15.5H17.1331V12.837C17.1331 9.4022 15.0309 7.26087 11.9683 7.26087C8.90571 7.26087 6.80352 9.4022 6.80352 12.837H1.5C1.5 6.41305 5.83245 2 11.9683 2ZM1.5 29H22.4259V23.8153H7.96666L15.4044 15.5109H8.9377L1.5 23.8044V29ZM36.6228 20.8587H45.326V23.8207H32.6158V20.8587L41.2966 10.325V10.1076H32.6158V7.13913H45.326V10.0794L36.6228 20.6348V20.8587ZM46.1008 17.65C46.1008 13.9413 48.5359 11.2652 52.37 11.2652C55.9683 11.2652 58.7033 13.8739 58.4664 18.7033H49.3544C49.6745 20.4152 50.7971 21.3804 52.4138 21.3804C53.6623 21.3804 54.5245 20.8544 55.041 19.9326H58.3981C57.601 22.3902 55.5169 24.0359 52.4095 24.0359C48.5359 24.0359 46.1008 21.337 46.1008 17.65ZM55.3644 16.5967C55.0634 14.8859 53.9642 13.9196 52.37 13.9196C50.7971 13.9196 49.6778 14.8859 49.3544 16.5967H55.3644ZM63.4434 21.2489H63.2065V23.8163H60.1898V7.13913H63.2065V14.0293H63.4434C64.2181 12.0729 65.727 11.2652 67.5358 11.2652C70.5084 11.2652 72.6203 13.7446 72.6203 17.65C72.6203 21.5782 70.5084 24.0359 67.5358 24.0359C65.727 24.0359 64.2181 23.25 63.4434 21.2489ZM66.2178 21.3576C68.049 21.3576 69.2334 19.9087 69.2334 17.6489C69.2334 15.3892 68.049 13.9402 66.2178 13.9402C64.3867 13.9402 63.2023 15.3892 63.2023 17.6489C63.2023 19.9087 64.391 21.3587 66.2221 21.3587L66.2178 21.3576ZM74.3436 11.4837H77.3595V14.0511H77.5965C78.3723 12.0946 79.8585 11.4837 81.4303 11.4837H82.1639V14.3152H80.2036C78.4151 14.3152 77.3595 15.587 77.3595 17.7598V23.8163H74.3436V11.4837ZM82.3568 20.3054C82.3568 17.9359 84.1236 16.6185 87.1586 16.6185C89.8267 16.6185 90.455 16.1359 90.455 15.3457C90.455 14.425 89.6155 13.9196 88.2576 13.9196C86.9657 13.9196 86.1234 14.4467 85.9101 15.3902H82.9417C83.2222 12.8663 85.1608 11.2652 88.263 11.2652C91.7314 11.2652 93.4336 13.1076 93.4336 16.3337V23.8163H90.7152V21.2707H90.5019C89.7275 23.2022 88.1754 24.0359 86.3231 24.0359C83.8872 24.0359 82.3568 22.6967 82.3568 20.3054ZM86.9894 21.6435C88.3677 21.6435 89.7466 20.9413 90.3497 18.6598L90.4564 18.1544C89.7452 18.55 88.6034 18.7913 87.2251 18.7913C85.9542 18.7913 85.1975 19.2522 85.1975 20.2174C85.1975 21.1826 85.8686 21.6435 86.9894 21.6435Z"
    fill="currentcolor" />
</svg>