{
  "$schema": "https://gitlab.com/berguminfo/deskimg/-/raw/main/public/LayoutSet.1.0.schema.json",
  "Background": {
    "Theme": "Dark",
    "Overlay": {
      "Pattern": "CheckerBoard",
      "Opacity": [ 0.54, 0.36 ]
    },
    "Composite": [
      {
        "From": 0.0,
        "To": 1.0,
        "Items": [
          { "Source": "{Local}304-{MaxWidth, number, 1920;4096}w-light.webp" }
        ]
      },
      {
        "From": -1.0,
        "To": -0.5,
        "Items": [
          { "Source": "{Local}304-{MaxWidth, number, 1920;4096}w-light.webp" },
          { "Source": "{Local}304-{MaxWidth, number, 1920;4096}w-dark.webp", "Opacity": 1.0 }
        ]
      },
      {
        "From": -0.5,
        "To": -0.25,
        "Items": [
          { "Source": "{Local}304-{MaxWidth, number, 1920;4096}w-dark.webp" }
        ]
      },
      {
        "From": -0.25,
        "To": 0.0,
        "Items": [
          { "Source": "{Local}304-{MaxWidth, number, 1920;4096}w-dark.webp" },
          { "Source": "{Local}304-{MaxWidth, number, 1920;4096}w-light.webp", "Opacity": 1.0 }
        ]
      }
    ]
  }
}
