<svg width="72" height="72" viewBox="0 0 72 72" fill="none" xmlns="http://www.w3.org/2000/svg">
<path d="M2 36C2 17.3046 17.3046 2 36 2C54.6954 2 70 17.3046 70 36C70 54.6954 54.6954 70 36 70C17.3046 70 2 54.6954 2 36Z" fill="#FBE415" stroke="#231F20" stroke-width="4"/>
<path d="M40.5 53.2799C40.5 55.7999 38.7 57.5999 36 57.5999C33.12 57.5999 31.5 55.7999 31.5 53.4599C31.5 50.7599 33.12 49.1399 36 49.1399C38.7 49.1399 40.5 50.7599 40.5 53.2799ZM32.22 28.4399L32.94 44.2799H39.42L40.14 28.4399V14.3999H32.22V28.4399Z" fill="#231F20"/>
</svg>