<svg xmlns="http://www.w3.org/2000/svg" class="icon icon-tabler icon-tabler-world" viewBox="0 0 24 24" stroke-width="2" stroke="currentcolor" fill="none" stroke-linecap="round" stroke-linejoin="round">
  <path stroke="none" d="M0 0h24v24H0z" fill="none"/>
  <path d="M12 12m-9 0a9 9 0 1 0 18 0a9 9 0 1 0 -18 0" />
  <path d="M3.6 9l16.8 0" />
  <path d="M3.6 15l16.8 0" />
  <path d="M11.5 3a17 17 0 0 0 0 18" />
  <path d="M12.5 3a17 17 0 0 1 0 18" />
</svg>
