<svg xmlns="http://www.w3.org/2000/svg" class="icon icon-tabler icon-tabler-wallpaper" width="24" height="24" viewBox="0 0 24 24" stroke-width="2" stroke="currentcolor" fill="none" stroke-linecap="round" stroke-linejoin="round">
  <path stroke="none" d="M0 0h24v24H0z" fill="none"/>
  <path d="M8 6h10a2 2 0 0 1 2 2v10a2 2 0 0 1 -2 2h-12" />
  <path d="M6 18m-2 0a2 2 0 1 0 4 0a2 2 0 1 0 -4 0" />
  <path d="M8 18v-12a2 2 0 1 0 -4 0v12" />
</svg>


